"Payment Date",Type,Details,Currency,Amount
"29/02/2016 02:52:48",Purchase,"Test charge +1Test 2,Ranger | 29/02/2016",GBP,-1.00
"29/02/2016 02:22:09",Purchase,"Test notest 123Ranger,Spread Research,Test 2 | 29/02/2016",USD,-2.00
"29/02/2016 02:21:23",Purchase,"Submit/CancelRanger,Spread Research,Test 2 | 26/02/2016",EUR,-2.00
"29/02/2016 02:30:31",Purchase,"test publication 29Ranger | 29/02/2016",USD,-12.00
"16/02/2016 02:33:41",Purchase,"Test title 1Spread Research | 01/02/2016",USD,-1.00
"16/02/2016 02:31:41",Purchase,"Moody's Credit Outlook - 23 November 2015Moodys | 22/11/2015",USD,-30.00
"13/02/2016 02:21:58",Purchase,"Explicit Mapping of data forecastSpread Research | 12/02/2016",USD,-2.00
"13/02/2016 02:18:29",Purchase,"CUS_Repower_17092015_finalCredit Suisse | 17/09/2015",USD,-5.00
"13/02/2016 02:17:54",Purchase,"Test NotesSpread Research | 04/02/2016",USD,-12.00
